titulo,precio
Mario Kart 7 3DS,$29.990
THE LEGEND OF ZELDA OCARINA OF TIME 3DS NINTENDO SELECT,$19.990
Super Mario 3D Land 3DS,$29.990
Lego Batman 2: DC Super Heroes 3DS,$14.990
Mario Tennis Open 3DS,$21.990
Donkey Kong Country Returns 3DS Nintendo Select,$19.990
Fire Emblem Fates: Birthright 3DS,$36.990
Disney Planes 3DS,$8.990
Dead or Alive Dimensions 3DS,$17.990
Lego Marvel Avengers 3DS,$19.990
Final Fantasy Explorers 3DS,$32.990
Marvel Super Hero Squad The Infinity Gauntlet 3DS,$17.990
Project X Zone 2 3DS,$14.990
Mario & Luigi Paper Jam 3DS,$32.990
Monster High Ghoul School 3DS,$29.990
RPG Maker Fes 3DS,$34.990
Hey! Pikmin 3DS,$36.990
Mario Sports Superstar 3DS,$36.990
Poochy & Yoshi`s Woolly World 3DS + Yarn Poochy amiibo,$44.990
River City Tokyo Rumble 3DS,$27.990
Sonic & All Star Racing Transformed 3DS,$14.990
Spongebob Squarepants: Plankton Robotic Revenge 3DS,$14.990
Pokemon Moon 3DS + Figura Lunala,$39.990
Pokemon Sun 3DS + Figura Solgaleo,$39.990
Lord of Magna: Maiden Heaven 3DS,$27.990
Dragon Quest VIII: Journey of the Cursed King 3DS,$36.990
Pokemon Sun and Moon Dual Pack + 3 figuras,$79.990
Pac-Man And The Ghostly Adventures 2 3DS,$19.990
Poochy & Yoshi's Woolly World 3DS,$36.990
Fantasy Life 3DS,$29.990
Sabans Power Ranger Super Megaforce 3DS,$9.990
Mario Golf World Tour 3DS,$14.990
Disney Magical World 3DS,$4.990
Kirby Triple Deluxe 3DS,$27.990
Planes Fire y Rescue 3DS,$19.990
Putty Squad 3DS,$17.990
Lego Ninjago Nindroids 3DS,$19.990
Tomodachi Life 3DS Nintendo Select,$24.990
Teenage Mutant Ninja Turtles 3DS (La pelicula),$16.990
Winx Club Saving Alfea 3DS,$17.990
DRIVER RENEGADE NINTENDO 3DS,$12.990
Hyrule Warriors Legends 3DS,$36.990
Metroid Prime: Federation Force 3DS,$27.990
Shin Megami Tensei: Devil Survivor Overclocked 3DS,$21.990
Yo-Kai Watch 2: Fleshy Souls 3DS,$36.990
Shin Megami Tensei: Devil Summoner Soul Hackers 3DS,$24.990
Yo-Kai Watch 2: Bony Spirits 3DS,$36.990
Dragon Quest VII: Fragments of the Forgotten Past 3DS,$36.990
Harvest Moon: A Tale of Two Towns 3DS,$19.990
Mario Party Star Rush 3DS,$36.990
7th Dragon III Code VFD 3DS,$29.990
Bravely Second: End Layer 3DS,$36.990
Terraria 3DS,$24.990
Pokemon Rumble World 3DS,$29.990
Kirby Planet Robobot 3DS,$36.990
Pokemon Moon 3DS,$36.990
Disney Art Academy,$29.990
Pokemon Sun 3DS,
Mario & Sonic at the Rio 2016 Olympic Games 3DS,$36.990
Langrisser Re: Incarnation Tensei 3DS,$19.990
DECA SPORTS EXTREME NINTENDO 3DS,$22.990
Tarjetas Amiibo Mario Sports Superstar Pack 5 unidades,$5.990
Monster Hunter Generations 3DS,$36.990
Runbow: Pocket deluxe Edition 3DS,$24.990
Fire Emblem Fates: Conquest 3DS,$36.990
NEW SUPER MARIO BROS 2 3DS,$29.990
Lego City Undercover The Chase Begins 3DS Nintendo Select,$19.990
Luigis Mansion Dark Moon 3DS Nintendo Select,$19.990
Final Fantasy Theatrhythm 3DS,$19.990
Angry Birds Trilogy 3DS,$12.990
Rodea The Sky Soldier 3DS,$24.990
Adventure Time Finn and Jake Investigations 3DS,$29.990
The Smurfs 3DS,$19.990
The Legend Of Zelda Tri Force Heroes 3DS,$34.990
ANIMAL CROSSING HAPPY HOME DESIGNER + AMIIBO CARD,$19.990
BUNDLE ANIMAL CROSSING HAPPY HOME DESIGNER + AMIIBO CARD + NFC 3DS,$29.990
Chibi Robo Zip Lash + Amiibo Chibi Robo,$32.990
Tenkai Knights Brave Battle 3DS,$17.990
Chibi Robo Zip Lash,$27.990
Conception II: Children of the Seven Stars 3DS,$19.990
Farming Simulator 14 3DS,$9.990
Mario Party Island Tour 3DS Nintendo Select,$29.990
Sonic Lost World 3DS,$19.990
Batman Arkham Origins Blackgate 3DS,$14.990
The LEGO Movie Videogame 3DS,$17.990
The Legend Of Zelda A Link Between Worlds 3DS,$27.990
Hello Kitty & Sanrio Friends 3D Racing 3DS,$19.990
Dragon Ball Fusions 3DS,$27.990
Pokemon Alpha Sapphire 3DS,
Persona Q: Shadow of Labyrinth 3DS,$34.990
Pokemon Omega Ruby 3DS,
Paddington Adventures in London 3DS,$24.990
Ace Combat Assault Horizon Legacy+ 3DS,$29.990
Garfield Kart 3DS,$24.990
Pokemon Super Mystery Dungeon 3DS,$34.990
Etrian Mystery Dungeon 3DS,$29.990
Lego Batman 3 Beyond Gotham 3DS,$17.990
Fossil Fighters: Frontier 3DS,$26.990
Ninjago Shadow of Ronin 3DS,$24.990
Ben 10 Omniverse 2 3DS,$14.990
Monster Hunter 4 Ultimate 3DS,$24.990
Lego Chima Lavals Journey 3DS,$9.990
Monster Hunter Stories 3DS,$36.990
Adventure Time 3 Secret of the Nameless Kingdom 3DS,$19.990
Disney Violetta Rhythm & Music 3DS,$5.990
Lego Star Wars III: The Clone Wars 3DS,$18.990
Little Battlers Experience 3DS,$32.990
Sega 3D Classics Collection 3DS,$24.990
Hatsune Miku: Project Mirai DX 3DS,$37.990
Lego Star Wars: The Force Awakens 3DS,$14.990
Return to Popolocrois: A Story Season 3DS,$17.990
Super Mario Maker 3DS,$29.990
Pokemon X 3DS,$34.990
Pokemon Y 3DS,$32.990
Final Fantasy Theatrhythm Curtain Call Standar 3DS,$24.990
Yoshi New Island 3DS Nintendo Select,$19.990
Final Fantasy Theatrhythm Curtain Call 3DS,$29.990
Super Smash Bros 3DS,$29.990
